module http-rest-api

go 1.13

require (
	github.com/BurntSushi/toml v0.3.1
	github.com/golang-migrate/migrate/v4 v4.9.1
	github.com/gorilla/mux v1.7.4
	github.com/lib/pq v1.3.0
	github.com/sirupsen/logrus v1.4.2
	github.com/stretchr/testify v1.5.1
)
